{

	"قاسم سليماني": "1101594",
	"محمد علي جعفري": "231165",
	"إبراهيم عواد إبراهيم علي البدري السامرائي": "1672786",
	"على القره داغي": "480425",
	"روحانی": "598100",
	"طارق نجم العبدلله": "2158476",
	"روز نوري شاويس": "2167645",
	"أنطونيو غوتيريس": "3300021",
	"غازي مشعل عجيل الياور": "22339",
	"محمود عثمان": "3180209",
	"حيدر العبادي": "2220052",
	"محمد باقري": "3174283",
	"حيدر منصور هادي العذاري": "3762981",
	"العبادي": "2220052",
	"يونس محمود خلف العبيدي": "102347",
	"باراك حسين أوباما الابن": "85991",
	"عبد الفتاح سعيد حسين خليل السيسي": "1420147",
	"حنان الفتلاوي": "2008849",
	"حسين الشهرستاني": "338460",
	"مسعود برزاني": "38226",
	"أبو حسن العامري": "2142402",
	"حيدر جواد العبادي": "2220052",
	"حسن نصر الله": "336130",
	"مسعود بارزاني": "38226",
	"قاسم الفهداوي": "2279626",
	"برهم صالح": "36105",
	"إبراهيم الجعفري": "16416",
	"أحمد عبدالهادي الجلبي": "13459",
	"عماد محمد ديب خميس": "3207648",
	"بهاء حسين علي الأعرجي": "2190399",
	"'السيد مقتدى الصدر": "2110",
	"محمد فؤاد معصوم هورامي": "393843",
	"بوردستان": "3103126",
	"شاسوار عبد الواحد": "4056288",
	"عادل_عبد_المهدي": "428936",
	"سلمان بن عبد العزيز": "49724",
	"موفق الربيعي": "116108",
	"عبد الفتاح السيسي": "1420147",
	"حسن روحانی": "598100",
	"طارق نجم": "2158476",
	"ضياء الأسدي": "1350431",
	"عمار الحكيم": "137662",
	"أحمد رضا بوردستان": "3103126",
	"جون كيري": "476557",
	"علي خامنئي": "59204",
	"نوشيروان مصطفى": "418243",
	"يونس محمود": "102347",
	"كوسرت رسول علي": "389708",
	"أبو مازن أحمد عبد الله عابد خلف الجبوري": "3152285",
	"محمد حمزة الزبيدي": "35829",
	"سليم عبدالله أحمد ناصر الجبوري": "2164981",
	"وفيق السامرائي": "2294064",
	"عزت الشابندر": "935775",
	"ترامب": "724435",
	"فؤاد معصوم": "393843",
	"أحمد عبدالله عابد خلف الجبوري": "3152285",
	"قاسم محمد عبد الفهداوي": "2279626",
	"سيرغي لافروف": "346051",
	"قباد طالباني": "2985423",
	"بن علی یلدریم": "3172375",
	"خميس الخنجر": "3716328",
	"صالح المطلك": "50958",
	"سلمان بن عبد العزيز بن عبد الرحمن آل سعود": "49724",
	"عبدالفلاح حسن حمادي السوداني": "2165070",
	"فيان دخيل شيخ سعيد خضر": "2167611",
	"خالد متعب ياسين العُبيدي": "2348521",
	"عباس البياتي": "3742907",
	"ايه الله السيد محمود الصرخي": "1514278",
	"نيجيرفان إدريس بارزاني": "51902",
	"أحمد الجلبي": "13459",
	"محمد بن سلمان": "457470",
	"د.فيصل الزبيدي": "35829",
	"الشيخ خميس فرحان علي الخنجر العيساوي": "3716328",
	"كرار جاسم": "197147",
	"طارق الهاشمي": "136518",
	"محمد بن سلمان آل سعود": "457470",
	"سعد الدين محمد أمين": "393850",
	"ناجي صبري أحمد الحديثي": "663732",
	"فلاديمير بوتين": "61752",
	"بأمير دولة العراق الإسلامية": "1672786",
	"مصطفى الكبيسي": "2840602",
	"حسن نصرالله": "336130",
	"محمد بن سلمان بن عبد العزيز آل سعود": "457470",
	"ريكس تيلرسون": "3359084",
	"علي محيي الدين القره داغي": "480425",
	"فلاديمير فلاديميروفيتش بوتين": "61752",
	"عماد خميس": "3207648",
	"القره داغي": "480425",
	"أنتونيو مانويل دي أوليفيرا غوتيريس": "3300021",
	"عماد أحمد": "1304480",
	"عزيز جعفري": "231165",
	"لافروف": "346051",
	"سعد الدين الحريري": "34174",
	"جون فوربس كيري": "476557",
	"عدنان الباجه جي": "319897",
	"عباس حسن موسى عباس البياتي": "3742907",
	"هوشيار زيباري": "36115",
	"عزت حسن علي الشابندر": "935775",
	"خالد العبيدي": "2348521",
	"أحمد راضي هميش": "60826",
	"هوزان محمود": "3335496",
	"هادي العامري": "2142402",
	"السيد علي الحسيني السيستاني": "6981",
	"هادي فرحان عبدالله العامري": "2142402",
	"مقتدى الصدر": "2110",
	"عبدالفتاح السيسي": "1420147",
	"هوشيار محمود محمد زيباري": "36115",
	"جاويش أوغلو": "2464255",
	"ريكس واين تيلرسون": "3359084",
	"تيلرسون": "3359084",
	"بشار الأسد": "5640",
	"فلاح السوداني": "2165070",
	"نيجيرفان بارزاني": "51902",
	"ضياء نجم عبد الله الاسدي": "1350431",
	"الدكتور مصطفى عياش الكبيسي": "2840602",
	"طارق أحمد بكر الهاشمي": "136518",
	"رجب طيب أردوغان": "41295",
	"دونالد ترامب": "724435",
	"دونالد ترومب": "724435",
	"ترومب": "724435",
	"أوباما": "85991",
	"أسامة النجيفي": "271897",
	"محمود الحسني الصرخي": "1514278",
	"بن علي يلدرم": "3172375",
	"صلاح عمر العلي": "3774250",
	"أحمد عبد الله الجبوري": "3152285",
	"احمد الجبوري": "3152285",
	"عمار عبد العزيز محسن الطباطبائي الحكيم": "137662",
	"أحمد راضي": "60826",
	"إياد جمال الدين": "297040",
	"دونالد جون ترامب": "724435",
	"علي الحسيني السيستاني": "6981",
	"محمد سعيد الصحاف": "92085",
	"مقتدى محمد محمد صادق": "2110",
	"نوري المالكي": "49338",
	"بوتين": "61752",
	"محمود علي عثمان": "3180209",
	"حسين إبراهيم الشهرستاني": "338460",
	"بهاء الأعرجي": "2190399",
	"مسعود مصطفى بارزاني": "38226",
	"الخامنئي": "59204",
	"حنان سعيد محسن الفتلاوي": "2008849",
	"أبو بكر البغدادي": "1672786",
	"حسن نصر الله عبد الكريم نصر الله": "336130",
	"بشار حافظ الأسد": "5640",
	"فيان دخيل": "2167611",
	"سعد الدين رفيق الحريري": "34174",
	"إياد علاوي": "3261",
	"ناجي صبري": "663732",
	"عماد أحمد سيفور": "1304480",
	"بن علي يلدرم أو بينالي يلدريم": "3172375",
	"فائق الشيخ علي": "2015405",
	"وليد المعلم": "150593",
	"ميشال سليمان": "173601",
	"محمد جواد ظريف": "1773964",
	"سليم الجبوري": "2164981",
	"شاسوار عبد الواحد قادر إبراهيم": "4056288",
	"إبراهيم عبد الكريم حمزة الأشيقر الجعفري": "16416",
	"نجم الدين كريم": "2182299",
	"سعد الدين أركيج": "393850",
	"عمار عبد العزيز محسن الحكيم": "137662",
	"السيد علي الحسيني الخامنئي": "59204",
	"جبران باسيل": "162343",
	"أردوغان": "41295",
	"سلمان بن عبد العزيز آل سعود": "49724",
	"أسامة عبد العزيز النجيفي": "271897",
	"السيد عبد العزيز الحكيم": "123845",
	"برهم أحمد صالح": "36105",
	"عبد العزيز الحكيم": "123845",
	"محمود الصرخي": "1514278",
	"عادل عبد المهدي المنتفكي": "428936",
	"نوري كامل محمد حسن أبو المحاسن المالكي": "49338",
	"كرار جاسم محمد المحمودي": "197147",
	"موفق باقر الربيعي": "116108",
	"مولود جاويش أوغلو": "2464255",
	"عز الدين سليم": "2968",
	"باراك أوباما": "85991",
	"سيرغي فيكتوروفيتش لافروف": "346051",
	"محمد حسين أفشردي": "3174283",
	"قاسم محمد الفهداوي": "2279626"
}
